{"key":"admin.read.audits.p1.pp50.v2","expires_at":1778602145,"value":{"logs":[{"id":51,"admin_id":1,"admin_name":"System Admin","admin_email":"admin@grabmas.local","action":"service_updated","target_id":10,"target_type":"service","target_booking_code":"","details":{"service_id":10,"category_id":4,"price":300000,"is_active":1,"source_ip":"::1","user_agent":"Mozilla/5.0 (Windows NT 10.0; Win64; x64) AppleWebKit/537.36 (KHTML, like Gecko) Chrome/148.0.0.0 Safari/537.36"},"created_at":"2026-05-12 23:17:12"},{"id":50,"admin_id":1,"admin_name":"System Admin","admin_email":"admin@grabmas.local","action":"service_updated","target_id":9,"target_type":"service","target_booking_code":"","details":{"service_id":9,"category_id":4,"price":220000,"is_active":1,"source_ip":"::1","user_agent":"Mozilla/5.0 (Windows NT 10.0; Win64; x64) AppleWebKit/537.36 (KHTML, like Gecko) Chrome/148.0.0.0 Safari/537.36"},"created_at":"2026-05-12 23:16:00"},{"id":49,"admin_id":1,"admin_name":"System Admin","admin_email":"admin@grabmas.local","action":"service_updated","target_id":6,"target_type":"service","target_booking_code":"","details":{"service_id":6,"category_id":3,"price":850000,"is_active":0,"source_ip":"::1","user_agent":"Mozilla/5.0 (Windows NT 10.0; Win64; x64) AppleWebKit/537.36 (KHTML, like Gecko) Chrome/148.0.0.0 Safari/537.36"},"created_at":"2026-05-12 23:14:47"},{"id":48,"admin_id":1,"admin_name":"System Admin","admin_email":"admin@grabmas.local","action":"service_updated","target_id":4,"target_type":"service","target_booking_code":"","details":{"service_id":4,"category_id":2,"price":680000,"is_active":1,"source_ip":"::1","user_agent":"Mozilla/5.0 (Windows NT 10.0; Win64; x64) AppleWebKit/537.36 (KHTML, like Gecko) Chrome/148.0.0.0 Safari/537.36"},"created_at":"2026-05-12 23:12:06"},{"id":47,"admin_id":1,"admin_name":"System Admin","admin_email":"admin@grabmas.local","action":"service_updated","target_id":3,"target_type":"service","target_booking_code":"","details":{"service_id":3,"category_id":2,"price":700000,"is_active":1,"source_ip":"::1","user_agent":"Mozilla/5.0 (Windows NT 10.0; Win64; x64) AppleWebKit/537.36 (KHTML, like Gecko) Chrome/148.0.0.0 Safari/537.36"},"created_at":"2026-05-12 23:10:20"},{"id":46,"admin_id":1,"admin_name":"System Admin","admin_email":"admin@grabmas.local","action":"service_updated","target_id":2,"target_type":"service","target_booking_code":"","details":{"service_id":2,"category_id":1,"price":600000,"is_active":1,"source_ip":"::1","user_agent":"Mozilla/5.0 (Windows NT 10.0; Win64; x64) AppleWebKit/537.36 (KHTML, like Gecko) Chrome/148.0.0.0 Safari/537.36"},"created_at":"2026-05-12 23:09:06"},{"id":45,"admin_id":1,"admin_name":"System Admin","admin_email":"admin@grabmas.local","action":"service_updated","target_id":1,"target_type":"service","target_booking_code":"","details":{"service_id":1,"category_id":1,"price":550000,"is_active":1,"source_ip":"::1","user_agent":"Mozilla/5.0 (Windows NT 10.0; Win64; x64) AppleWebKit/537.36 (KHTML, like Gecko) Chrome/148.0.0.0 Safari/537.36"},"created_at":"2026-05-12 23:07:08"},{"id":44,"admin_id":1,"admin_name":"System Admin","admin_email":"admin@grabmas.local","action":"booking_cancelled","target_id":10,"target_type":"booking","target_booking_code":"BM-3F9766B4","details":{"booking_id":10,"previous_status":"pending_payment","source_ip":"::1","user_agent":"Mozilla/5.0 (Windows NT 10.0; Win64; x64) AppleWebKit/537.36 (KHTML, like Gecko) Chrome/148.0.0.0 Safari/537.36"},"created_at":"2026-05-12 21:01:31"},{"id":43,"admin_id":1,"admin_name":"System Admin","admin_email":"admin@grabmas.local","action":"booking_cancelled","target_id":11,"target_type":"booking","target_booking_code":"BM-87CCA15E","details":{"booking_id":11,"previous_status":"pending_payment","source_ip":"::1","user_agent":"Mozilla/5.0 (Windows NT 10.0; Win64; x64) AppleWebKit/537.36 (KHTML, like Gecko) Chrome/148.0.0.0 Safari/537.36"},"created_at":"2026-05-12 21:01:27"},{"id":42,"admin_id":1,"admin_name":"System Admin","admin_email":"admin@grabmas.local","action":"booking_cancelled","target_id":12,"target_type":"booking","target_booking_code":"BM-2D66B22A","details":{"booking_id":12,"previous_status":"pending_payment","source_ip":"::1","user_agent":"Mozilla/5.0 (Windows NT 10.0; Win64; x64) AppleWebKit/537.36 (KHTML, like Gecko) Chrome/148.0.0.0 Safari/537.36"},"created_at":"2026-05-12 21:01:19"},{"id":41,"admin_id":1,"admin_name":"System Admin","admin_email":"admin@grabmas.local","action":"booking_cancelled","target_id":13,"target_type":"booking","target_booking_code":"BM-56D98644","details":{"booking_id":13,"previous_status":"pending_payment","source_ip":"::1","user_agent":"Mozilla/5.0 (Windows NT 10.0; Win64; x64) AppleWebKit/537.36 (KHTML, like Gecko) Chrome/148.0.0.0 Safari/537.36"},"created_at":"2026-05-12 21:01:14"},{"id":40,"admin_id":1,"admin_name":"System Admin","admin_email":"admin@grabmas.local","action":"booking_cancelled","target_id":14,"target_type":"booking","target_booking_code":"BM-D6AEE43E","details":{"booking_id":14,"previous_status":"pending_payment","source_ip":"::1","user_agent":"Mozilla/5.0 (Windows NT 10.0; Win64; x64) AppleWebKit/537.36 (KHTML, like Gecko) Chrome/148.0.0.0 Safari/537.36"},"created_at":"2026-05-12 21:01:07"},{"id":39,"admin_id":1,"admin_name":"System Admin","admin_email":"admin@grabmas.local","action":"booking_cancelled","target_id":16,"target_type":"booking","target_booking_code":"BM-59D56185","details":{"booking_id":16,"previous_status":"pending_payment","source_ip":"::1","user_agent":"Mozilla/5.0 (Windows NT 10.0; Win64; x64) AppleWebKit/537.36 (KHTML, like Gecko) Chrome/148.0.0.0 Safari/537.36"},"created_at":"2026-05-12 21:01:01"},{"id":38,"admin_id":1,"admin_name":"System Admin","admin_email":"admin@grabmas.local","action":"booking_cancelled","target_id":17,"target_type":"booking","target_booking_code":"BM-EBDB8DC5","details":{"booking_id":17,"previous_status":"pending_payment","source_ip":"::1","user_agent":"Mozilla/5.0 (Windows NT 10.0; Win64; x64) AppleWebKit/537.36 (KHTML, like Gecko) Chrome/148.0.0.0 Safari/537.36"},"created_at":"2026-05-12 21:00:57"},{"id":37,"admin_id":1,"admin_name":"System Admin","admin_email":"admin@grabmas.local","action":"booking_cancelled","target_id":18,"target_type":"booking","target_booking_code":"BM-4B620840","details":{"booking_id":18,"previous_status":"pending_payment","source_ip":"::1","user_agent":"Mozilla/5.0 (Windows NT 10.0; Win64; x64) AppleWebKit/537.36 (KHTML, like Gecko) Chrome/148.0.0.0 Safari/537.36"},"created_at":"2026-05-12 21:00:53"},{"id":36,"admin_id":1,"admin_name":"System Admin","admin_email":"admin@grabmas.local","action":"booking_cancelled","target_id":19,"target_type":"booking","target_booking_code":"BM-DBA9D1E8","details":{"booking_id":19,"previous_status":"pending_payment","source_ip":"::1","user_agent":"Mozilla/5.0 (Windows NT 10.0; Win64; x64) AppleWebKit/537.36 (KHTML, like Gecko) Chrome/148.0.0.0 Safari/537.36"},"created_at":"2026-05-12 21:00:49"},{"id":35,"admin_id":1,"admin_name":"System Admin","admin_email":"admin@grabmas.local","action":"booking_cancelled","target_id":7,"target_type":"booking","target_booking_code":"BM-22B3A56D","details":{"booking_id":7,"previous_status":"pending_payment","source_ip":"::1","user_agent":"Mozilla/5.0 (Windows NT 10.0; Win64; x64) AppleWebKit/537.36 (KHTML, like Gecko) Chrome/148.0.0.0 Safari/537.36"},"created_at":"2026-05-12 21:00:28"},{"id":34,"admin_id":1,"admin_name":"System Admin","admin_email":"admin@grabmas.local","action":"booking_cancelled","target_id":8,"target_type":"booking","target_booking_code":"BM-A37845CD","details":{"booking_id":8,"previous_status":"pending_payment","source_ip":"::1","user_agent":"Mozilla/5.0 (Windows NT 10.0; Win64; x64) AppleWebKit/537.36 (KHTML, like Gecko) Chrome/148.0.0.0 Safari/537.36"},"created_at":"2026-05-12 21:00:20"},{"id":33,"admin_id":1,"admin_name":"System Admin","admin_email":"admin@grabmas.local","action":"booking_cancelled","target_id":9,"target_type":"booking","target_booking_code":"BM-48BEE66E","details":{"booking_id":9,"previous_status":"pending_payment","source_ip":"::1","user_agent":"Mozilla/5.0 (Windows NT 10.0; Win64; x64) AppleWebKit/537.36 (KHTML, like Gecko) Chrome/148.0.0.0 Safari/537.36"},"created_at":"2026-05-12 21:00:13"},{"id":32,"admin_id":1,"admin_name":"System Admin","admin_email":"admin@grabmas.local","action":"stripe_payment_synced","target_id":11,"target_type":"payment","target_booking_code":"","details":{"booking_id":12,"booking_code":"BM-2D66B22A","payment_id":11,"provider_payment_id":"pi_3TWEgrA91QbY0Rbu1WGlICYq","stripe_intent_status":"requires_payment_method","local_payment_status":"failed","local_booking_payment_status":"failed","source_ip":"::1","user_agent":"Mozilla/5.0 (Windows NT 10.0; Win64; x64) AppleWebKit/537.36 (KHTML, like Gecko) Chrome/148.0.0.0 Safari/537.36"},"created_at":"2026-05-12 20:52:00"},{"id":31,"admin_id":1,"admin_name":"System Admin","admin_email":"admin@grabmas.local","action":"stripe_payment_synced","target_id":13,"target_type":"payment","target_booking_code":"","details":{"booking_id":13,"booking_code":"BM-56D98644","payment_id":13,"provider_payment_id":"pi_3TWEhWA91QbY0Rbu14286ENd","stripe_intent_status":"requires_payment_method","local_payment_status":"failed","local_booking_payment_status":"failed","source_ip":"::1","user_agent":"Mozilla/5.0 (Windows NT 10.0; Win64; x64) AppleWebKit/537.36 (KHTML, like Gecko) Chrome/148.0.0.0 Safari/537.36"},"created_at":"2026-05-12 20:51:58"},{"id":30,"admin_id":1,"admin_name":"System Admin","admin_email":"admin@grabmas.local","action":"stripe_payment_synced","target_id":15,"target_type":"payment","target_booking_code":"","details":{"booking_id":14,"booking_code":"BM-D6AEE43E","payment_id":15,"provider_payment_id":"pi_3TWEkdA91QbY0Rbu0eDNPw9g","stripe_intent_status":"requires_payment_method","local_payment_status":"failed","local_booking_payment_status":"failed","source_ip":"::1","user_agent":"Mozilla/5.0 (Windows NT 10.0; Win64; x64) AppleWebKit/537.36 (KHTML, like Gecko) Chrome/148.0.0.0 Safari/537.36"},"created_at":"2026-05-12 20:51:55"},{"id":29,"admin_id":1,"admin_name":"System Admin","admin_email":"admin@grabmas.local","action":"stripe_payment_synced","target_id":17,"target_type":"payment","target_booking_code":"","details":{"booking_id":15,"booking_code":"BM-D4EE4BA9","payment_id":17,"provider_payment_id":"pi_3TWEmhA91QbY0Rbu0iSWWbEE","stripe_intent_status":"succeeded","local_payment_status":"succeeded","local_booking_payment_status":"paid","source_ip":"::1","user_agent":"Mozilla/5.0 (Windows NT 10.0; Win64; x64) AppleWebKit/537.36 (KHTML, like Gecko) Chrome/148.0.0.0 Safari/537.36"},"created_at":"2026-05-12 20:51:52"},{"id":28,"admin_id":1,"admin_name":"System Admin","admin_email":"admin@grabmas.local","action":"stripe_payment_synced","target_id":19,"target_type":"payment","target_booking_code":"","details":{"booking_id":16,"booking_code":"BM-59D56185","payment_id":19,"provider_payment_id":"pi_3TWErnA91QbY0Rbu0t1vfyBQ","stripe_intent_status":"requires_payment_method","local_payment_status":"failed","local_booking_payment_status":"failed","source_ip":"::1","user_agent":"Mozilla/5.0 (Windows NT 10.0; Win64; x64) AppleWebKit/537.36 (KHTML, like Gecko) Chrome/148.0.0.0 Safari/537.36"},"created_at":"2026-05-12 20:51:50"},{"id":27,"admin_id":1,"admin_name":"System Admin","admin_email":"admin@grabmas.local","action":"stripe_payment_synced","target_id":21,"target_type":"payment","target_booking_code":"","details":{"booking_id":17,"booking_code":"BM-EBDB8DC5","payment_id":21,"provider_payment_id":"pi_3TWEsMA91QbY0Rbu191SvTbk","stripe_intent_status":"requires_payment_method","local_payment_status":"failed","local_booking_payment_status":"failed","source_ip":"::1","user_agent":"Mozilla/5.0 (Windows NT 10.0; Win64; x64) AppleWebKit/537.36 (KHTML, like Gecko) Chrome/148.0.0.0 Safari/537.36"},"created_at":"2026-05-12 20:51:48"},{"id":26,"admin_id":1,"admin_name":"System Admin","admin_email":"admin@grabmas.local","action":"stripe_payment_synced","target_id":23,"target_type":"payment","target_booking_code":"","details":{"booking_id":18,"booking_code":"BM-4B620840","payment_id":23,"provider_payment_id":"pi_3TWEupA91QbY0Rbu1ClwnyEZ","stripe_intent_status":"requires_payment_method","local_payment_status":"failed","local_booking_payment_status":"failed","source_ip":"::1","user_agent":"Mozilla/5.0 (Windows NT 10.0; Win64; x64) AppleWebKit/537.36 (KHTML, like Gecko) Chrome/148.0.0.0 Safari/537.36"},"created_at":"2026-05-12 20:51:46"},{"id":25,"admin_id":1,"admin_name":"System Admin","admin_email":"admin@grabmas.local","action":"stripe_payment_synced","target_id":25,"target_type":"payment","target_booking_code":"","details":{"booking_id":19,"booking_code":"BM-DBA9D1E8","payment_id":25,"provider_payment_id":"pi_3TWExRA91QbY0Rbu0nu3O5OH","stripe_intent_status":"requires_payment_method","local_payment_status":"failed","local_booking_payment_status":"failed","source_ip":"::1","user_agent":"Mozilla/5.0 (Windows NT 10.0; Win64; x64) AppleWebKit/537.36 (KHTML, like Gecko) Chrome/148.0.0.0 Safari/537.36"},"created_at":"2026-05-12 20:48:37"},{"id":24,"admin_id":1,"admin_name":"System Admin","admin_email":"admin@grabmas.local","action":"stripe_payment_synced","target_id":25,"target_type":"payment","target_booking_code":"","details":{"booking_id":19,"booking_code":"BM-DBA9D1E8","payment_id":25,"provider_payment_id":"pi_3TWExRA91QbY0Rbu0nu3O5OH","stripe_intent_status":"requires_payment_method","local_payment_status":"failed","local_booking_payment_status":"failed","source_ip":"::1","user_agent":"Mozilla/5.0 (Windows NT 10.0; Win64; x64) AppleWebKit/537.36 (KHTML, like Gecko) Chrome/148.0.0.0 Safari/537.36"},"created_at":"2026-05-12 20:48:16"},{"id":23,"admin_id":1,"admin_name":"System Admin","admin_email":"admin@grabmas.local","action":"stripe_payment_synced","target_id":27,"target_type":"payment","target_booking_code":"","details":{"booking_id":20,"booking_code":"BM-87FDB4F4","payment_id":27,"provider_payment_id":"pi_3TWF3HA91QbY0Rbu0xUKgL69","stripe_intent_status":"succeeded","local_payment_status":"succeeded","local_booking_payment_status":"paid","source_ip":"::1","user_agent":"Mozilla/5.0 (Windows NT 10.0; Win64; x64) AppleWebKit/537.36 (KHTML, like Gecko) Chrome/148.0.0.0 Safari/537.36"},"created_at":"2026-05-12 20:48:09"},{"id":22,"admin_id":1,"admin_name":"System Admin","admin_email":"admin@grabmas.local","action":"stripe_payment_synced","target_id":29,"target_type":"payment","target_booking_code":"","details":{"booking_id":21,"booking_code":"BM-4DE7F649","payment_id":29,"provider_payment_id":"pi_3TWF4FA91QbY0Rbu1HSaEfYi","stripe_intent_status":"succeeded","local_payment_status":"succeeded","local_booking_payment_status":"paid","source_ip":"::1","user_agent":"Mozilla/5.0 (Windows NT 10.0; Win64; x64) AppleWebKit/537.36 (KHTML, like Gecko) Chrome/148.0.0.0 Safari/537.36"},"created_at":"2026-05-12 20:48:02"},{"id":21,"admin_id":1,"admin_name":"System Admin","admin_email":"admin@grabmas.local","action":"therapist_updated","target_id":3,"target_type":"therapist","target_booking_code":"","details":{"therapist_id":3,"user_id":6,"email":"bro@grabmassage.com","is_active":1,"source_ip":"::1","user_agent":"Mozilla/5.0 (Windows NT 10.0; Win64; x64) AppleWebKit/537.36 (KHTML, like Gecko) Chrome/148.0.0.0 Safari/537.36"},"created_at":"2026-05-12 19:04:13"},{"id":20,"admin_id":1,"admin_name":"System Admin","admin_email":"admin@grabmas.local","action":"therapist_updated","target_id":4,"target_type":"therapist","target_booking_code":"","details":{"therapist_id":4,"user_id":7,"email":"newbie@grabmassage.local","is_active":1,"source_ip":"::1","user_agent":"Mozilla/5.0 (Windows NT 10.0; Win64; x64) AppleWebKit/537.36 (KHTML, like Gecko) Chrome/148.0.0.0 Safari/537.36"},"created_at":"2026-05-12 19:04:03"},{"id":19,"admin_id":1,"admin_name":"System Admin","admin_email":"admin@grabmas.local","action":"therapist_updated","target_id":1,"target_type":"therapist","target_booking_code":"","details":{"therapist_id":1,"user_id":2,"email":"mas@grabmassage.com","is_active":1,"source_ip":"::1","user_agent":"Mozilla/5.0 (Windows NT 10.0; Win64; x64) AppleWebKit/537.36 (KHTML, like Gecko) Chrome/148.0.0.0 Safari/537.36"},"created_at":"2026-05-12 19:03:58"},{"id":18,"admin_id":1,"admin_name":"System Admin","admin_email":"admin@grabmas.local","action":"therapist_coverage_updated","target_id":2,"target_type":"therapist","target_booking_code":"","details":{"therapist_id":2,"groups":["A","B"],"label":"Both Groups (A + B)","source_ip":"::1","user_agent":"Mozilla/5.0 (Windows NT 10.0; Win64; x64) AppleWebKit/537.36 (KHTML, like Gecko) Chrome/148.0.0.0 Safari/537.36"},"created_at":"2026-05-12 18:29:30"},{"id":17,"admin_id":1,"admin_name":"System Admin","admin_email":"admin@grabmas.local","action":"therapist_updated","target_id":4,"target_type":"therapist","target_booking_code":"","details":{"therapist_id":4,"user_id":7,"email":"newbie@grabmassage.local","is_active":0,"source_ip":"::1","user_agent":"Mozilla/5.0 (Windows NT 10.0; Win64; x64) AppleWebKit/537.36 (KHTML, like Gecko) Chrome/148.0.0.0 Safari/537.36"},"created_at":"2026-05-12 08:21:04"},{"id":16,"admin_id":1,"admin_name":"System Admin","admin_email":"admin@grabmas.local","action":"therapist_updated","target_id":1,"target_type":"therapist","target_booking_code":"","details":{"therapist_id":1,"user_id":2,"email":"mas@grabmassage.com","is_active":0,"source_ip":"::1","user_agent":"Mozilla/5.0 (Windows NT 10.0; Win64; x64) AppleWebKit/537.36 (KHTML, like Gecko) Chrome/148.0.0.0 Safari/537.36"},"created_at":"2026-05-12 08:20:59"},{"id":15,"admin_id":1,"admin_name":"System Admin","admin_email":"admin@grabmas.local","action":"therapist_updated","target_id":3,"target_type":"therapist","target_booking_code":"","details":{"therapist_id":3,"user_id":6,"email":"bro@grabmassage.com","is_active":0,"source_ip":"::1","user_agent":"Mozilla/5.0 (Windows NT 10.0; Win64; x64) AppleWebKit/537.36 (KHTML, like Gecko) Chrome/148.0.0.0 Safari/537.36"},"created_at":"2026-05-12 08:20:54"},{"id":14,"admin_id":1,"admin_name":"System Admin","admin_email":"admin@grabmas.local","action":"therapist_coverage_updated","target_id":5,"target_type":"therapist","target_booking_code":"","details":{"therapist_id":5,"groups":["A"],"label":"Group A","source_ip":"::1","user_agent":"Mozilla/5.0 (Windows NT 10.0; Win64; x64) AppleWebKit/537.36 (KHTML, like Gecko) Chrome/148.0.0.0 Safari/537.36"},"created_at":"2026-05-12 08:20:38"},{"id":13,"admin_id":1,"admin_name":"System Admin","admin_email":"admin@grabmas.local","action":"therapist_updated","target_id":5,"target_type":"therapist","target_booking_code":"","details":{"therapist_id":5,"user_id":8,"email":"anggita@grabme.com","is_active":1,"source_ip":"::1","user_agent":"Mozilla/5.0 (Windows NT 10.0; Win64; x64) AppleWebKit/537.36 (KHTML, like Gecko) Chrome/148.0.0.0 Safari/537.36"},"created_at":"2026-05-12 08:20:31"},{"id":12,"admin_id":1,"admin_name":"System Admin","admin_email":"admin@grabmas.local","action":"therapist_created","target_id":0,"target_type":"therapist","target_booking_code":"","details":{"therapist_id":0,"user_id":8,"email":"anggita@grabme.com","is_active":1,"source_ip":"::1","user_agent":"Mozilla/5.0 (Windows NT 10.0; Win64; x64) AppleWebKit/537.36 (KHTML, like Gecko) Chrome/148.0.0.0 Safari/537.36"},"created_at":"2026-05-12 08:20:22"},{"id":11,"admin_id":1,"admin_name":"System Admin","admin_email":"admin@grabmas.local","action":"therapist_updated","target_id":3,"target_type":"therapist","target_booking_code":"","details":{"therapist_id":3,"user_id":6,"email":"bro@grabmassage.com","is_active":1,"source_ip":"::1","user_agent":"Mozilla/5.0 (Windows NT 10.0; Win64; x64) AppleWebKit/537.36 (KHTML, like Gecko) Chrome/148.0.0.0 Safari/537.36"},"created_at":"2026-05-12 08:12:55"},{"id":10,"admin_id":1,"admin_name":"System Admin","admin_email":"admin@grabmas.local","action":"therapist_updated","target_id":3,"target_type":"therapist","target_booking_code":"","details":{"therapist_id":3,"user_id":6,"email":"bro@grabmassage.com","is_active":1,"source_ip":"::1","user_agent":"Mozilla/5.0 (Windows NT 10.0; Win64; x64) AppleWebKit/537.36 (KHTML, like Gecko) Chrome/148.0.0.0 Safari/537.36"},"created_at":"2026-05-12 08:12:39"},{"id":9,"admin_id":1,"admin_name":"System Admin","admin_email":"admin@grabmas.local","action":"service_updated","target_id":5,"target_type":"service","target_booking_code":"","details":{"service_id":5,"category_id":2,"price":750000,"is_active":1,"source_ip":"::1","user_agent":"Mozilla/5.0 (Windows NT 10.0; Win64; x64) AppleWebKit/537.36 (KHTML, like Gecko) Chrome/148.0.0.0 Safari/537.36"},"created_at":"2026-05-12 07:57:18"},{"id":8,"admin_id":1,"admin_name":"System Admin","admin_email":"admin@grabmas.local","action":"service_updated","target_id":6,"target_type":"service","target_booking_code":"","details":{"service_id":6,"category_id":3,"price":850000,"is_active":0,"source_ip":"::1","user_agent":"Mozilla/5.0 (Windows NT 10.0; Win64; x64) AppleWebKit/537.36 (KHTML, like Gecko) Chrome/148.0.0.0 Safari/537.36"},"created_at":"2026-05-12 07:55:24"},{"id":7,"admin_id":1,"admin_name":"System Admin","admin_email":"admin@grabmas.local","action":"service_updated","target_id":7,"target_type":"service","target_booking_code":"","details":{"service_id":7,"category_id":3,"price":800000,"is_active":0,"source_ip":"::1","user_agent":"Mozilla/5.0 (Windows NT 10.0; Win64; x64) AppleWebKit/537.36 (KHTML, like Gecko) Chrome/148.0.0.0 Safari/537.36"},"created_at":"2026-05-12 07:55:18"},{"id":6,"admin_id":1,"admin_name":"System Admin","admin_email":"admin@grabmas.local","action":"service_updated","target_id":7,"target_type":"service","target_booking_code":"","details":{"service_id":7,"category_id":3,"price":800000,"is_active":1,"source_ip":"::1","user_agent":"Mozilla/5.0 (Windows NT 10.0; Win64; x64) AppleWebKit/537.36 (KHTML, like Gecko) Chrome/148.0.0.0 Safari/537.36"},"created_at":"2026-05-12 07:54:32"},{"id":5,"admin_id":1,"admin_name":"System Admin","admin_email":"admin@grabmas.local","action":"service_updated","target_id":8,"target_type":"service","target_booking_code":"","details":{"service_id":8,"category_id":4,"price":250000,"is_active":1,"source_ip":"::1","user_agent":"Mozilla/5.0 (Windows NT 10.0; Win64; x64) AppleWebKit/537.36 (KHTML, like Gecko) Chrome/148.0.0.0 Safari/537.36"},"created_at":"2026-05-12 07:16:44"},{"id":4,"admin_id":1,"admin_name":"System Admin","admin_email":"admin@grabmas.local","action":"therapist_coverage_updated","target_id":3,"target_type":"therapist","target_booking_code":"","details":{"therapist_id":3,"groups":["A","B"],"label":"Both Groups (A + B)","source_ip":"::1","user_agent":"Mozilla/5.0 (Windows NT 10.0; Win64; x64) AppleWebKit/537.36 (KHTML, like Gecko) Chrome/147.0.0.0 Safari/537.36"},"created_at":"2026-05-10 23:08:32"},{"id":3,"admin_id":1,"admin_name":"System Admin","admin_email":"admin@grabmas.local","action":"therapist_updated","target_id":3,"target_type":"therapist","target_booking_code":"","details":{"therapist_id":3,"user_id":6,"email":"bro@grabmassage.com","is_active":1,"source_ip":"::1","user_agent":"Mozilla/5.0 (Windows NT 10.0; Win64; x64) AppleWebKit/537.36 (KHTML, like Gecko) Chrome/147.0.0.0 Safari/537.36"},"created_at":"2026-05-10 23:07:52"},{"id":2,"admin_id":1,"admin_name":"System Admin","admin_email":"admin@grabmas.local","action":"booking_cancelled","target_id":1,"target_type":"booking","target_booking_code":"BM-6D5DC8D9","details":{"booking_id":1,"previous_status":"pending_payment","source_ip":"::1","user_agent":"Mozilla/5.0 (Windows NT 10.0; Win64; x64) AppleWebKit/537.36 (KHTML, like Gecko) Chrome/147.0.0.0 Safari/537.36"},"created_at":"2026-05-10 23:07:33"}],"pagination":{"page":1,"per_page":50,"total":51,"total_pages":2}}}